0.000
0.000
0.000
0.000
0.000
2.646
6.053
6.051
6.053
6.053
6.053
29.803
29.805
29.805
29.805
29.805
29.807
29.807
29.807
29.807
29.807
29.809
29.807
29.807
29.807
29.809
29.812
29.812
29.812
29.812
29.809
29.812
29.812
29.809
29.809
29.807
29.809
29.809
29.809
29.809
29.807
29.809
29.809
29.809
29.809
29.812
29.809
29.809
29.809
29.809
29.809
29.809
29.809
29.809
29.809
29.812
29.809
29.812
29.809
29.814
29.812
29.812
29.809
29.812
29.812
29.816
29.812
29.809
29.814
29.812
29.809
29.812
29.809
29.812
29.814
29.809
29.809
29.812
29.812
29.812
29.812
29.812
29.809
29.809
29.812
29.812
29.812
29.809
29.812
29.812
29.812
29.812
29.809
29.812
29.812
29.812
29.812
29.812
29.812
29.812
29.812
29.809
29.809
29.812
29.812
29.812
29.812
29.812
29.812
29.812
29.812
29.812
29.814
29.812
29.812
29.814
29.812
29.814
29.814
29.814
29.812
29.812
29.814
29.809
29.812
29.812
29.812
29.809
29.812
29.814
29.809
29.812
29.812
29.814
29.812
29.812
29.812
29.812
29.812
29.812
29.814
29.814
29.816
29.812
29.812
29.812
29.809
29.812
29.812
29.812
29.814
29.812
29.812
29.814
29.814
29.814
29.814
29.812
29.814
29.814
29.812
29.814
29.812
29.814
29.812
29.812
29.814
29.812
29.814
29.814
29.814
29.814
29.814
29.814
29.814
29.814
29.812
29.812
29.812
29.812
29.807
29.816
29.820
29.816
29.816
29.818
29.818
29.816
29.816
29.814
29.796
5.279
0.007
0.011
0.007
0.002
0.004
0.002
0.000
0.004
0.002
0.002
0.000
0.002
0.002
0.000
0.000
0.000
0.000
0.000
0.000
0.000
0.000
0.000
0.000
0.000
0.000
0.000
